<svg xmlns="http://www.w3.org/2000/svg" viewBox="1059 468 80 80.202">
  <defs>
    <style>
      .cls-1 {
        fill: rgba(242,242,242,0);
      }

      .cls-2 {
        fill: #dbdbd8;
      }

      .cls-3 {
        fill: #0073a0;
      }
    </style>
  </defs>
  <g id="selfie" transform="translate(980 141)">
    <path id="Path_1863" data-name="Path 1863" class="cls-1" d="M0,0H80V80H0Z" transform="translate(79 327)"/>
    <g id="Group_1674" data-name="Group 1674" transform="translate(1 3)">
      <path id="Path_1529" data-name="Path 1529" class="cls-2" d="M7424.822-2465.927v-6.382s.6-7.876,7.829-8.7,7.072-.186,8.789-3.93-2.238-6.9-2.238-6.9a17.267,17.267,0,0,1-4.783-13.2c1.421-8.916,9.824-8.539,11.3-8.2s4.841.887,9.01,5.68.167,12.566-1.18,15.14-5.076,6.235-3.809,7.468,16.834,3.426,16.969,12.076,0,6.933,0,6.933Z" transform="translate(-7324 2870)"/>
      <g id="Group_1345" data-name="Group 1345" transform="translate(95.555 350.784)">
        <path id="Path_1528" data-name="Path 1528" class="cls-3" d="M31.24,32.924H29.034A1.362,1.362,0,0,1,27.7,31.879a1.693,1.693,0,0,1,.406-1.51c4.7-4.007,7.607-11.9,7.607-16.956a13.385,13.385,0,1,0-26.769,0c0,5.052,2.9,12.949,7.608,16.956a1.693,1.693,0,0,1,.406,1.51,1.362,1.362,0,0,1-1.336,1.045H13.414A13.419,13.419,0,0,0,0,46.338V49.3a1.5,1.5,0,0,0,1.51,1.51H43.144a1.5,1.5,0,0,0,1.51-1.51V46.338A13.457,13.457,0,0,0,31.24,32.924ZM41.634,47.789H2.961V46.28A10.384,10.384,0,0,1,13.355,35.886h2.207a4.4,4.4,0,0,0,4.239-3.31,4.663,4.663,0,0,0-1.394-4.529c-3.891-3.31-6.562-10.394-6.562-14.691a10.394,10.394,0,1,1,20.788,0c0,4.3-2.671,11.439-6.562,14.691a4.663,4.663,0,0,0-1.394,4.529,4.359,4.359,0,0,0,4.239,3.31h2.207a10.384,10.384,0,0,1,10.4,10.394v1.51Zm0,0"/>
      </g>
    </g>
  </g>
</svg>
