{
  "x-generator": "NSwag v13.2.3.0 (NJsonSchema v10.1.5.0 (Newtonsoft.Json v11.0.0.0))",
  "swagger": "2.0",
  "info": {
    "title": "Sinex Operação API",
    "description": "Manipulação de Operações",
    "termsOfService": "None",
    "contact": {
      "name": "Techer",
      "url": "https://techer.com.br",
      "email": "contato@techer.com.br"
    },
    "version": "v1"
  },
  "host": "localhost:9003",
  "schemes": [
    "http"
  ],
  "produces": [
    "text/plain",
    "application/json",
    "text/json"
  ],
  "paths": {
    "/Operacao/{codigoOperacao}/anexos": {
      "post": {
        "tags": [
          "Operacao"
        ],
        "summary": "Upload de anexo para a operação",
        "operationId": "Operacao_AdicionarAnexo",
        "parameters": [
          {
            "type": "integer",
            "name": "codigoOperacao",
            "in": "path",
            "required": true,
            "description": "Código da Operação",
            "format": "int32",
            "x-nullable": false
          }
        ],
        "responses": {
          "200": {
            "x-nullable": false,
            "description": "Código do Anexo",
            "schema": {
              "type": "string",
              "format": "guid"
            }
          }
        }
      }
    },
    "/Operacao/emprestimo/cliente/cpf/{cpf}": {
      "get": {
        "tags": [
          "Operacao"
        ],
        "summary": "Localização de operações por CPF",
        "operationId": "Operacao_BuscarOperacoesEmprestimoPorCpf",
        "parameters": [
          {
            "type": "string",
            "name": "cpf",
            "in": "path",
            "required": true,
            "description": "Número do CPF",
            "x-nullable": true
          }
        ],
        "responses": {
          "200": {
            "x-nullable": false,
            "description": "Operações",
            "schema": {
              "type": "array",
              "items": {
                "$ref": "#/definitions/OperacaoEmprestimoModel"
              }
            }
          }
        }
      }
    }
  },
  "definitions": {
    "OperacaoEmprestimoModel": {
      "type": "object",
      "required": [
        "id",
        "codigo",
        "dataHoraCriacao",
        "valorBruto",
        "valorLiquido",
        "prazo",
        "valorParcela"
      ],
      "properties": {
        "id": {
          "type": "string",
          "format": "guid"
        },
        "codigo": {
          "type": "integer",
          "format": "int32"
        },
        "dataHoraCriacao": {
          "type": "string",
          "format": "date-time"
        },
        "dataHoraCancelamento": {
          "type": "string",
          "format": "date-time"
        },
        "instituicao": {
          "$ref": "#/definitions/InstituicaoModel"
        },
        "convenio": {
          "$ref": "#/definitions/ConvenioModel"
        },
        "matricula": {
          "type": "string"
        },
        "renda": {
          "type": "number",
          "format": "decimal"
        },
        "valorBruto": {
          "type": "number",
          "format": "decimal"
        },
        "valorLiquido": {
          "type": "number",
          "format": "decimal"
        },
        "prazo": {
          "type": "integer",
          "format": "int32"
        },
        "valorParcela": {
          "type": "number",
          "format": "decimal"
        },
        "taxas": {
          "$ref": "#/definitions/TaxaModel"
        },
        "formaPagamento": {
          "$ref": "#/definitions/DominicioBancarioModel"
        },
        "tags": {
          "type": "array",
          "items": {
            "type": "string"
          }
        }
      }
    },
    "InstituicaoModel": {
      "type": "object",
      "required": [
        "id"
      ],
      "properties": {
        "id": {
          "type": "integer",
          "format": "int32"
        },
        "nome": {
          "type": "string"
        },
        "codigoCompensacao": {
          "type": "string"
        }
      }
    },
    "ConvenioModel": {
      "type": "object",
      "required": [
        "id"
      ],
      "properties": {
        "id": {
          "type": "integer",
          "format": "int32"
        },
        "nome": {
          "type": "string"
        }
      }
    },
    "TaxaModel": {
      "type": "object",
      "properties": {
        "juroMensal": {
          "type": "number",
          "format": "decimal"
        },
        "juroAnual": {
          "type": "number",
          "format": "decimal"
        },
        "cetMensal": {
          "type": "number",
          "format": "decimal"
        },
        "cetAnual": {
          "type": "number",
          "format": "decimal"
        }
      }
    },
    "DominicioBancarioModel": {
      "type": "object",
      "properties": {
        "formaPagamentoId": {
          "type": "integer",
          "format": "int32"
        },
        "bancoCod": {
          "type": "string"
        },
        "agencia": {
          "type": "string"
        },
        "agenciaDigito": {
          "type": "string"
        },
        "conta": {
          "type": "string"
        },
        "contaDigito": {
          "type": "string"
        },
        "contaCorrente": {
          "type": "boolean"
        }
      }
    }
  },
  "tags": [
    {
      "name": "Operacao",
      "description": "Métodos para ações realizadas no pós-venda"
    }
  ]
}