<svg id="appstore" xmlns="http://www.w3.org/2000/svg" width="148.697" height="48.641" viewBox="0 0 148.697 48.641">
  <path id="Caminho_3232" data-name="Caminho 3232" d="M245.339,576.136a6.573,6.573,0,0,1-6.572,6.573H103.214a6.574,6.574,0,0,1-6.573-6.573V540.642a6.574,6.574,0,0,1,6.573-6.573H238.767a6.573,6.573,0,0,1,6.572,6.573Z" transform="translate(-96.641 -534.069)" fill="#02125f"/>
  <path id="Caminho_3233" data-name="Caminho 3233" d="M149.014,562.682H136.9a2.629,2.629,0,0,0-2.629,2.628v26.835a2.629,2.629,0,0,0,2.629,2.629h12.112a2.63,2.63,0,0,0,2.63-2.629V565.31A2.629,2.629,0,0,0,149.014,562.682Zm-6.056,30.162a1.751,1.751,0,1,1,1.751-1.751A1.75,1.75,0,0,1,142.958,592.844Zm6.621-4.354H136.337V568.7h13.241Z" transform="translate(-123.333 -554.364)" fill="#fff"/>
  <path id="Caminho_3234" data-name="Caminho 3234" d="M224.04,567.277l-.736,2.23h-.947l2.408-7.09h1.1l2.419,7.09h-.978l-.757-2.23Zm2.324-.715-.7-2.041c-.147-.463-.253-.884-.358-1.293h-.031c-.095.41-.21.852-.347,1.283l-.694,2.051Z" transform="translate(-185.809 -554.176)" fill="#fff"/>
  <path id="Caminho_3235" data-name="Caminho 3235" d="M243.608,569.292l1,2.851c.169.473.305.894.411,1.314h.031c.116-.42.262-.841.431-1.314l.989-2.851h.968l-2,5.091h-.884l-1.934-5.091Z" transform="translate(-200.181 -559.052)" fill="#fff"/>
  <path id="Caminho_3236" data-name="Caminho 3236" d="M264.116,572.882a8.54,8.54,0,0,0,.074,1.219h-.831l-.085-.641h-.031a1.879,1.879,0,0,1-1.557.757,1.45,1.45,0,0,1-1.556-1.461c0-1.231,1.094-1.9,3.06-1.894v-.105a1.045,1.045,0,0,0-1.156-1.177,2.452,2.452,0,0,0-1.336.378l-.211-.621a3.3,3.3,0,0,1,1.683-.441c1.568,0,1.946,1.062,1.946,2.083Zm-.9-1.378c-1.01-.021-2.155.158-2.155,1.147a.81.81,0,0,0,.861.883,1.286,1.286,0,0,0,1.252-.852.957.957,0,0,0,.042-.3Z" transform="translate(-212.6 -558.77)" fill="#fff"/>
  <path id="Caminho_3237" data-name="Caminho 3237" d="M278.866,563.174a.594.594,0,0,1,.022-1.188.569.569,0,0,1,.59.589.579.579,0,0,1-.6.6Zm-.441,6.027V564.11h.926V569.2Z" transform="translate(-225.48 -553.87)" fill="#fff"/>
  <path id="Caminho_3238" data-name="Caminho 3238" d="M287.043,561.117h.926v7.467h-.926Z" transform="translate(-231.689 -553.254)" fill="#fff"/>
  <path id="Caminho_3239" data-name="Caminho 3239" d="M297.939,572.882a8.581,8.581,0,0,0,.074,1.219h-.832l-.084-.641h-.031a1.88,1.88,0,0,1-1.557.757,1.45,1.45,0,0,1-1.556-1.461c0-1.231,1.094-1.9,3.061-1.894v-.105a1.046,1.046,0,0,0-1.158-1.177,2.445,2.445,0,0,0-1.334.378l-.211-.621a3.3,3.3,0,0,1,1.683-.441c1.567,0,1.946,1.062,1.946,2.083Zm-.9-1.378c-1.01-.021-2.157.158-2.157,1.147a.811.811,0,0,0,.863.883,1.285,1.285,0,0,0,1.252-.852.941.941,0,0,0,.042-.3Z" transform="translate(-236.59 -558.77)" fill="#fff"/>
  <path id="Caminho_3240" data-name="Caminho 3240" d="M312.481,561.117h.926V564.3h.022a1.888,1.888,0,0,1,1.734-.925c1.263,0,2.146,1.052,2.146,2.587a2.43,2.43,0,0,1-2.293,2.734,1.823,1.823,0,0,1-1.7-.957h-.022l-.053.842h-.8c.031-.348.041-.863.041-1.314Zm.926,5.428a1.661,1.661,0,0,0,.033.336,1.436,1.436,0,0,0,1.388,1.083c.979,0,1.546-.788,1.546-1.956,0-1.031-.526-1.9-1.514-1.9a1.536,1.536,0,0,0-1.452,1.525Z" transform="translate(-249.703 -553.254)" fill="#fff"/>
  <path id="Caminho_3241" data-name="Caminho 3241" d="M332.986,561.117h.925v7.467h-.925Z" transform="translate(-264.276 -553.254)" fill="#fff"/>
  <path id="Caminho_3242" data-name="Caminho 3242" d="M340.9,571.688a1.622,1.622,0,0,0,1.735,1.767,3.5,3.5,0,0,0,1.41-.253l.168.652a4.14,4.14,0,0,1-1.7.326,2.375,2.375,0,0,1-2.5-2.566,2.483,2.483,0,0,1,2.4-2.756,2.149,2.149,0,0,1,2.092,2.4,2.394,2.394,0,0,1-.032.442Zm2.7-.662a1.322,1.322,0,0,0-1.273-1.505,1.527,1.527,0,0,0-1.42,1.505Z" transform="translate(-269.252 -558.744)" fill="#fff"/>
  <path id="Caminho_3243" data-name="Caminho 3243" d="M367.874,574.217a2.426,2.426,0,0,1-2.44-2.619,2.492,2.492,0,0,1,2.524-2.7,2.407,2.407,0,0,1,2.45,2.608,2.5,2.5,0,0,1-2.524,2.714Zm.031-.694c.884,0,1.546-.831,1.546-1.989,0-.862-.431-1.946-1.525-1.946s-1.557,1.01-1.557,1.978c0,1.115.631,1.957,1.525,1.957Z" transform="translate(-287.291 -558.77)" fill="#fff"/>
  <path id="Caminho_3244" data-name="Caminho 3244" d="M386.276,570.389c0-.537-.012-.957-.044-1.379h.821l.052.831h.021a1.886,1.886,0,0,1,1.682-.946c.7,0,1.8.421,1.8,2.167V574.1h-.927v-2.935c0-.819-.3-1.514-1.178-1.514a1.336,1.336,0,0,0-1.241.947,1.388,1.388,0,0,0-.063.432V574.1h-.924Z" transform="translate(-302.042 -558.77)" fill="#fff"/>
  <path id="Caminho_3245" data-name="Caminho 3245" d="M413.468,565.1v1.219h1.324v.7h-1.324v2.745c0,.631.179.989.693.989a1.724,1.724,0,0,0,.538-.063l.041.7a2.514,2.514,0,0,1-.82.126,1.324,1.324,0,0,1-1-.388,2,2,0,0,1-.357-1.336v-2.777h-.788v-.7h.788v-.936Z" transform="translate(-320.159 -556.077)" fill="#fff"/>
  <path id="Caminho_3246" data-name="Caminho 3246" d="M425.557,561.117h.925v3.176h.02a1.644,1.644,0,0,1,.663-.652,1.8,1.8,0,0,1,.947-.263c.683,0,1.776.421,1.776,2.177v3.029h-.924v-2.923c0-.831-.306-1.515-1.179-1.515a1.34,1.34,0,0,0-1.24.926,1.116,1.116,0,0,0-.064.442v3.071h-.925Z" transform="translate(-329.934 -553.254)" fill="#fff"/>
  <path id="Caminho_3247" data-name="Caminho 3247" d="M445.08,571.688a1.623,1.623,0,0,0,1.735,1.767,3.514,3.514,0,0,0,1.411-.253l.167.652a4.146,4.146,0,0,1-1.7.326,2.375,2.375,0,0,1-2.5-2.566,2.483,2.483,0,0,1,2.4-2.756,2.149,2.149,0,0,1,2.094,2.4,2.368,2.368,0,0,1-.032.442Zm2.7-.662a1.322,1.322,0,0,0-1.273-1.505,1.526,1.526,0,0,0-1.42,1.505Z" transform="translate(-343.147 -558.744)" fill="#fff"/>
  <path id="Caminho_3248" data-name="Caminho 3248" d="M470.992,563.174a.594.594,0,0,1,.021-1.188.569.569,0,0,1,.589.589.58.58,0,0,1-.6.6Zm-.443,6.027V564.11h.925V569.2Z" transform="translate(-361.749 -553.87)" fill="#fff"/>
  <path id="Caminho_3249" data-name="Caminho 3249" d="M479.275,562.384a9.517,9.517,0,0,1,1.757-.147,2.9,2.9,0,0,1,1.987.59,1.91,1.91,0,0,1,.632,1.482,2.047,2.047,0,0,1-.558,1.514,2.933,2.933,0,0,1-2.166.778,3.221,3.221,0,0,1-.736-.062v2.839h-.915Zm.915,3.408a3.126,3.126,0,0,0,.757.074c1.115,0,1.777-.547,1.777-1.5s-.663-1.4-1.672-1.4a4.527,4.527,0,0,0-.863.074Z" transform="translate(-368.036 -554.048)" fill="#fff"/>
  <path id="Caminho_3250" data-name="Caminho 3250" d="M498.053,561.117h.926v3.176H499a1.648,1.648,0,0,1,.662-.652,1.8,1.8,0,0,1,.947-.263c.684,0,1.777.421,1.777,2.177v3.029h-.925v-2.923c0-.831-.305-1.515-1.179-1.515a1.342,1.342,0,0,0-1.241.926,1.117,1.117,0,0,0-.063.442v3.071h-.926Z" transform="translate(-381.354 -553.254)" fill="#fff"/>
  <path id="Caminho_3251" data-name="Caminho 3251" d="M519.124,574.217a2.426,2.426,0,0,1-2.44-2.619,2.492,2.492,0,0,1,2.525-2.7,2.407,2.407,0,0,1,2.45,2.608,2.494,2.494,0,0,1-2.523,2.714Zm.032-.694c.882,0,1.546-.831,1.546-1.989,0-.862-.431-1.946-1.526-1.946s-1.557,1.01-1.557,1.978c0,1.115.631,1.957,1.525,1.957Z" transform="translate(-394.569 -558.77)" fill="#fff"/>
  <path id="Caminho_3252" data-name="Caminho 3252" d="M537.528,570.389c0-.537-.011-.957-.042-1.379h.821l.052.831h.021a1.887,1.887,0,0,1,1.683-.946c.7,0,1.8.421,1.8,2.167V574.1h-.924v-2.935c0-.819-.305-1.514-1.179-1.514a1.335,1.335,0,0,0-1.24.947,1.367,1.367,0,0,0-.065.432V574.1h-.924Z" transform="translate(-409.323 -558.77)" fill="#fff"/>
  <path id="Caminho_3253" data-name="Caminho 3253" d="M557.154,571.688a1.623,1.623,0,0,0,1.736,1.767,3.5,3.5,0,0,0,1.409-.253l.169.652a4.148,4.148,0,0,1-1.7.326,2.375,2.375,0,0,1-2.5-2.566,2.483,2.483,0,0,1,2.4-2.756,2.149,2.149,0,0,1,2.094,2.4,2.4,2.4,0,0,1-.031.442Zm2.7-.662a1.322,1.322,0,0,0-1.273-1.505,1.526,1.526,0,0,0-1.42,1.505Z" transform="translate(-422.64 -558.744)" fill="#fff"/>
  <path id="Caminho_3254" data-name="Caminho 3254" d="M227.919,603.32l-6.236,18.357h2.856l1.862-5.637h6.038l1.914,5.637h2.935l-6.263-18.357Zm1.48,3.018c.211.819.438,1.67.73,2.589l1.681,4.867h-4.783l1.658-4.9C228.936,608.1,229.175,607.244,229.4,606.338Z" transform="translate(-185.331 -583.187)" fill="#fff"/>
  <path id="Caminho_3255" data-name="Caminho 3255" d="M285.88,619.69a5.2,5.2,0,0,0-4.415,2.118l-.111-1.826h-2.54l.015.234c.074,1.137.106,2.39.106,4.187v14.149h2.777v-6.6a4.878,4.878,0,0,0,3.8,1.631,5.728,5.728,0,0,0,4.209-1.789,7.591,7.591,0,0,0,1.858-5.342,7.387,7.387,0,0,0-1.614-4.878A5.283,5.283,0,0,0,285.88,619.69Zm-.692,2.3c2.476,0,3.584,2.293,3.584,4.566,0,2.932-1.413,4.753-3.689,4.753a3.367,3.367,0,0,1-3.272-2.577,3.551,3.551,0,0,1-.1-.9V625.6a4.141,4.141,0,0,1,.089-.685c.014-.076.029-.152.04-.226A3.517,3.517,0,0,1,285.188,621.989Z" transform="translate(-225.852 -594.798)" fill="#fff"/>
  <path id="Caminho_3256" data-name="Caminho 3256" d="M335.075,619.69a5.2,5.2,0,0,0-4.416,2.118l-.11-1.826h-2.54l.015.234c.075,1.138.106,2.39.106,4.187v14.149h2.778v-6.6a4.874,4.874,0,0,0,3.8,1.631,5.733,5.733,0,0,0,4.21-1.789,7.6,7.6,0,0,0,1.857-5.342,7.389,7.389,0,0,0-1.614-4.878A5.281,5.281,0,0,0,335.075,619.69Zm-.691,2.3c2.475,0,3.583,2.293,3.583,4.566,0,2.932-1.415,4.753-3.689,4.753a3.367,3.367,0,0,1-3.272-2.577,3.557,3.557,0,0,1-.1-.9V625.6a4.018,4.018,0,0,1,.089-.688c.013-.075.027-.149.04-.223A3.515,3.515,0,0,1,334.384,621.989Z" transform="translate(-260.746 -594.798)" fill="#fff"/>
  <path id="Caminho_3257" data-name="Caminho 3257" d="M397.815,610.385c-2.592-1-3.423-1.793-3.423-3.252,0-1.228.976-2.466,3.157-2.466a6.31,6.31,0,0,1,3.26.818l.236.145.783-2.318-.155-.091a8.051,8.051,0,0,0-4.044-.907c-3.542,0-6.016,2.091-6.016,5.084,0,2.414,1.549,4.1,4.875,5.31,2.356.881,3.234,1.784,3.234,3.331,0,1.751-1.353,2.838-3.53,2.838a7.6,7.6,0,0,1-4-1.135l-.241-.155-.746,2.371.137.091a9.507,9.507,0,0,0,4.693,1.207c4.774,0,6.466-2.911,6.466-5.4C402.5,613.282,401.143,611.7,397.815,610.385Z" transform="translate(-305.568 -582.474)" fill="#fff"/>
  <path id="Caminho_3258" data-name="Caminho 3258" d="M435.747,609.816l-2.724.855v2.308h-1.994v2.22h1.994V622a5.2,5.2,0,0,0,.962,3.524,3.561,3.561,0,0,0,2.687,1.055,6.534,6.534,0,0,0,2.147-.332l.156-.055-.133-2.224-.266.082a4.183,4.183,0,0,1-1.292.15c-1.077,0-1.536-.682-1.536-2.28V615.2h3.35v-2.22h-3.35Z" transform="translate(-333.816 -587.795)" fill="#fff"/>
  <path id="Caminho_3259" data-name="Caminho 3259" d="M466.356,619.69c-3.886,0-6.6,2.9-6.6,7.051,0,4.027,2.626,6.839,6.387,6.839h.026c3.179,0,6.6-2.215,6.6-7.078a7.018,7.018,0,0,0-1.77-4.913A6.18,6.18,0,0,0,466.356,619.69Zm-.08,2.192c2.5,0,3.635,2.436,3.635,4.7,0,2.784-1.552,4.805-3.688,4.805H466.2c-2.107,0-3.636-1.987-3.636-4.725C462.56,624.283,463.709,621.882,466.276,621.882Z" transform="translate(-354.191 -594.798)" fill="#fff"/>
  <path id="Caminho_3260" data-name="Caminho 3260" d="M516.91,619.818l-.166-.042a2.668,2.668,0,0,0-.691-.086,3.961,3.961,0,0,0-3.482,2.235l-.082-1.944H510l.016.234c.074,1.1.1,2.334.1,4l-.026,9.073h2.778v-7.079a7.252,7.252,0,0,1,.076-1.076,3.07,3.07,0,0,1,2.922-2.8,7.215,7.215,0,0,1,.746.046l.3.031Z" transform="translate(-389.825 -594.798)" fill="#fff"/>
  <path id="Caminho_3261" data-name="Caminho 3261" d="M539.935,619.6c-3.7,0-6.281,2.954-6.281,7.184,0,4.074,2.569,6.706,6.546,6.706a10.662,10.662,0,0,0,4.4-.843l.167-.076-.533-2.069-.232.093a8.6,8.6,0,0,1-3.48.622,3.861,3.861,0,0,1-4.16-4.027l8.965.026.036-.177a6.146,6.146,0,0,0,.084-1.159C545.444,622.982,544,619.6,539.935,619.6Zm-.186,2.113a2.74,2.74,0,0,1,2.039.778,3.949,3.949,0,0,1,.956,2.585h-6.333C536.668,623.471,537.671,621.712,539.749,621.712Z" transform="translate(-406.605 -594.734)" fill="#fff"/>
</svg>
