<svg xmlns="http://www.w3.org/2000/svg" xmlns:xlink="http://www.w3.org/1999/xlink" width="158.23" height="102.636" viewBox="0 0 158.23 102.636">
  <defs>
    <linearGradient id="linear-gradient" x1="0.633" y1="-0.076" x2="0.706" y2="1" gradientUnits="objectBoundingBox">
      <stop offset="0" stop-color="#0268f2"/>
      <stop offset="0.127" stop-color="#0268f2"/>
      <stop offset="0.191" stop-color="#0f39b1"/>
      <stop offset="0.449" stop-color="#0f247c"/>
      <stop offset="0.463" stop-color="#0265ee"/>
      <stop offset="0.603" stop-color="#0f38af"/>
      <stop offset="1" stop-color="#0363ec"/>
    </linearGradient>
    <linearGradient id="linear-gradient-2" x1="0.5" x2="0.5" y2="1" gradientUnits="objectBoundingBox">
      <stop offset="0" stop-color="#0268f2"/>
      <stop offset="1" stop-color="#132b9d"/>
    </linearGradient>
  </defs>
  <g id="Grupo_4362" data-name="Grupo 4362" transform="translate(-234.269 -69.963)">
    <path id="Caminho_3220" data-name="Caminho 3220" d="M1354.538,156.589s19.556-2,30.613,7.456a63.236,63.236,0,0,1,19.961,0c5.7.907,25.74,7.76,26.98,34.443-.063-.021,1.249,0,3.893,0s22.552,7.079,22.292,28.188-12.792,31.61-40.025,31.219C1417.824,258.23,1354.538,156.589,1354.538,156.589Z" transform="translate(-1065.78 -85.307)" fill="url(#linear-gradient)"/>
    <path id="Caminho_3221" data-name="Caminho 3221" d="M664.984,64.011S645.957,42.5,622.867,56.826,601.525,96.17,601.525,96.17s-14.948,5.32-16.13,30.262c-.626,23.1,22.821,27.864,22.821,27.864h93.333s28.278-1.26,29.353-27.864c.784-31.518-23.978-32.031-23.978-32.031s.374-25.227-21.943-32.89C672.727,57.472,664.984,64.011,664.984,64.011Z" transform="translate(-351.113 18.057)" fill="url(#linear-gradient-2)"/>
  </g>
</svg>
