<svg xmlns="http://www.w3.org/2000/svg" width="10.508" height="20.231" viewBox="0 0 10.508 20.231">
  <path id="Caminho_3351" data-name="Caminho 3351" d="M647.171,172.493l.463-3.6h-3.561v-2.3c0-1.041.289-1.752,1.78-1.752h1.907v-3.217a25.848,25.848,0,0,0-2.775-.141c-2.747,0-4.628,1.675-4.628,4.754V168.9h-3.1v3.6h3.1v9.229h3.716v-9.229Z" transform="translate(-637.252 -161.491)" fill="#02125f"/>
</svg>
