<svg xmlns="http://www.w3.org/2000/svg" width="13.9" height="11.227" viewBox="0 0 13.9 11.227">
  <g id="Grupo_2885" data-name="Grupo 2885" transform="translate(-1593.848 -4524.362)">
    <g id="Grupo_2767" data-name="Grupo 2767" transform="translate(1631.748 5516.95) rotate(180)">
      <path id="Caminho_2501" data-name="Caminho 2501" d="M24.2,987.509l4.277,4.811a.8.8,0,1,0,1.194-1.069l-3.091-3.475H37.1a.8.8,0,1,0,0-1.6H26.582l3.091-3.475a.821.821,0,0,0-.063-1.14.811.811,0,0,0-1.131.071L24.2,986.44a.81.81,0,0,0,0,1.069Z" transform="translate(0 0)" fill="#fff"/>
    </g>
  </g>
</svg>
