<svg id="android" xmlns="http://www.w3.org/2000/svg" xmlns:xlink="http://www.w3.org/1999/xlink" width="160.651" height="48.456" viewBox="0 0 160.651 48.456">
  <defs>
    <linearGradient id="linear-gradient" x1="0.915" y1="6.614" x2="-0.383" y2="5.945" gradientUnits="objectBoundingBox">
      <stop offset="0" stop-color="#00a0ff"/>
      <stop offset="0.007" stop-color="#00a1ff"/>
      <stop offset="0.26" stop-color="#00beff"/>
      <stop offset="0.512" stop-color="#00d2ff"/>
      <stop offset="0.76" stop-color="#00dfff"/>
      <stop offset="1" stop-color="#00e3ff"/>
    </linearGradient>
    <linearGradient id="linear-gradient-2" x1="1.076" y1="17.098" x2="-1.305" y2="17.098" gradientUnits="objectBoundingBox">
      <stop offset="0" stop-color="#ffe000"/>
      <stop offset="0.409" stop-color="#ffbd00"/>
      <stop offset="0.775" stop-color="orange"/>
      <stop offset="1" stop-color="#ff9c00"/>
    </linearGradient>
    <linearGradient id="linear-gradient-3" x1="0.862" y1="10.863" x2="-0.501" y2="9.093" gradientUnits="objectBoundingBox">
      <stop offset="0" stop-color="#ff3a44"/>
      <stop offset="1" stop-color="#c31162"/>
    </linearGradient>
    <linearGradient id="linear-gradient-4" x1="-0.188" y1="13.583" x2="0.421" y2="12.793" gradientUnits="objectBoundingBox">
      <stop offset="0" stop-color="#32a071"/>
      <stop offset="0.068" stop-color="#2da771"/>
      <stop offset="0.476" stop-color="#15cf74"/>
      <stop offset="0.801" stop-color="#06e775"/>
      <stop offset="1" stop-color="#00f076"/>
    </linearGradient>
  </defs>
  <path id="Caminho_3292" data-name="Caminho 3292" d="M257.292,136.429a6.841,6.841,0,0,1-7.1,6.549H103.743a6.843,6.843,0,0,1-7.1-6.549V101.07a6.842,6.842,0,0,1,7.1-6.548H250.192a6.841,6.841,0,0,1,7.1,6.548Z" transform="translate(-96.641 -94.522)" fill="#02125f"/>
  <g id="Grupo_4614" data-name="Grupo 4614" transform="translate(11.868 7.48)">
    <path id="Caminho_3390" data-name="Caminho 3390" d="M83.284,32.646a5.061,5.061,0,1,0,5.08,5.061A4.988,4.988,0,0,0,83.284,32.646Zm0,8.128a3.075,3.075,0,1,1,2.856-3.067A2.928,2.928,0,0,1,83.284,40.774ZM72.2,32.646a5.061,5.061,0,1,0,5.08,5.061A4.989,4.989,0,0,0,72.2,32.646Zm0,8.128a3.075,3.075,0,1,1,2.856-3.067A2.928,2.928,0,0,1,72.2,40.774ZM59.017,34.2v2.147h5.137a4.481,4.481,0,0,1-1.169,2.7,5.26,5.26,0,0,1-3.969,1.572,5.713,5.713,0,0,1,0-11.425,5.474,5.474,0,0,1,3.872,1.534L64.4,29.214a7.491,7.491,0,0,0-5.387-2.167,7.861,7.861,0,1,0,0,15.721A7.183,7.183,0,0,0,64.5,40.563a7.1,7.1,0,0,0,1.86-5.023,6.937,6.937,0,0,0-.115-1.341Zm53.917,1.667a4.7,4.7,0,0,0-4.333-3.22,4.809,4.809,0,0,0-4.773,5.061,4.953,4.953,0,0,0,5.023,5.061,5.033,5.033,0,0,0,4.217-2.243l-1.726-1.151a2.891,2.891,0,0,1-2.492,1.4,2.576,2.576,0,0,1-2.455-1.533l6.768-2.8Zm-6.9,1.687a2.777,2.777,0,0,1,2.645-2.952,1.958,1.958,0,0,1,1.879,1.073Zm-5.5,4.908h2.223V27.584h-2.223Zm-3.644-8.685h-.076a3.508,3.508,0,0,0-2.664-1.131,5.066,5.066,0,0,0,0,10.122,3.448,3.448,0,0,0,2.664-1.151h.076v.729c0,1.936-1.034,2.971-2.7,2.971a2.8,2.8,0,0,1-2.55-1.8l-1.936.806a4.823,4.823,0,0,0,4.486,2.99c2.607,0,4.812-1.534,4.812-5.272V32.952h-2.11Zm-2.549,7a3.078,3.078,0,0,1,0-6.134,2.852,2.852,0,0,1,2.7,3.087A2.827,2.827,0,0,1,94.338,40.774Zm29.014-13.189h-5.321V42.461h2.219V36.825h3.1a4.627,4.627,0,1,0,0-9.24Zm.057,7.17H120.25v-5.1h3.158a2.55,2.55,0,1,1,0,5.1Zm13.723-2.136a4.171,4.171,0,0,0-3.963,2.276l1.972.823a2.1,2.1,0,0,1,2.029-1.091,2.138,2.138,0,0,1,2.335,1.915v.152a4.912,4.912,0,0,0-2.316-.574c-2.124,0-4.288,1.167-4.288,3.349a3.438,3.438,0,0,0,3.694,3.274,3.133,3.133,0,0,0,2.833-1.455h.076v1.148h2.143v-5.7C141.648,34.092,139.677,32.619,137.132,32.619Zm-.268,8.153c-.728,0-1.742-.363-1.742-1.263,0-1.148,1.263-1.589,2.354-1.589a3.961,3.961,0,0,1,2.029.5A2.692,2.692,0,0,1,136.864,40.771Zm12.593-7.828-2.545,6.45h-.076l-2.642-6.45H141.8l3.962,9.014L143.5,46.972h2.316l6.106-14.029Zm-20,9.518h2.221V27.585h-2.221Z" transform="translate(-14.07 -13.256)" fill="#fff"/>
    <path id="Caminho_3391" data-name="Caminho 3391" d="M20.523,17.552a2.388,2.388,0,0,0-.55,1.672V45.542a2.386,2.386,0,0,0,.55,1.672l.088.086L35.354,32.557v-.347L20.611,17.465Z" transform="translate(-19.973 -15.077)" fill="url(#linear-gradient)"/>
    <path id="Caminho_3392" data-name="Caminho 3392" d="M37.813,35.9,32.9,30.987V30.64l4.916-4.916.111.064L43.747,29.1c1.662.945,1.662,2.491,0,3.436L37.925,35.84Z" transform="translate(-17.517 -13.507)" fill="url(#linear-gradient-2)"/>
    <path id="Caminho_3393" data-name="Caminho 3393" d="M40.293,35.028,35.266,30,20.435,44.832a1.936,1.936,0,0,0,2.474.073l17.384-9.877" transform="translate(-19.885 -12.695)" fill="url(#linear-gradient-3)"/>
    <path id="Caminho_3394" data-name="Caminho 3394" d="M40.293,27.418,22.909,17.541a1.936,1.936,0,0,0-2.474.073L35.266,32.445Z" transform="translate(-19.885 -15.138)" fill="url(#linear-gradient-4)"/>
    <path id="Caminho_3395" data-name="Caminho 3395" d="M40.182,34.132,22.909,43.946a1.981,1.981,0,0,1-2.385.013h0l-.089.088h0l.088.087h0a1.981,1.981,0,0,0,2.385-.013l17.384-9.877Z" transform="translate(-19.885 -11.91)" opacity="0.2" style="isolation: isolate"/>
    <path id="Caminho_3396" data-name="Caminho 3396" d="M20.523,42.585a2.386,2.386,0,0,1-.55-1.672v.175a2.383,2.383,0,0,0,.55,1.671l.089-.088Z" transform="translate(-19.973 -10.621)" opacity="0.12" style="isolation: isolate"/>
    <path id="Caminho_3397" data-name="Caminho 3397" d="M42.962,31.546l-5.933,3.371.111.111,5.823-3.308A2.089,2.089,0,0,0,44.209,30h0A2.214,2.214,0,0,1,42.962,31.546Z" transform="translate(-16.732 -12.695)" opacity="0.12" style="isolation: isolate"/>
    <path id="Caminho_3398" data-name="Caminho 3398" d="M23,17.715,46.2,30.9a2.214,2.214,0,0,1,1.247,1.545h0A2.086,2.086,0,0,0,46.2,30.726L23,17.541c-1.664-.945-3.024-.159-3.024,1.745v.175C19.973,17.555,21.333,16.77,23,17.715Z" transform="translate(-19.973 -15.138)" fill="#fff" opacity="0.25" style="isolation: isolate"/>
    <path id="Caminho_3399" data-name="Caminho 3399" d="M51.338,24.14V17h2.184a3.551,3.551,0,0,1,2.633.992,3.5,3.5,0,0,1,.987,2.578,3.5,3.5,0,0,1-.987,2.578,3.551,3.551,0,0,1-2.633.992Zm.916-.877h1.267a2.673,2.673,0,0,0,1.959-.709A2.644,2.644,0,0,0,56.2,20.57a2.483,2.483,0,0,0-2.682-2.693H52.254Z" transform="translate(-14.014 -15.165)" fill="#fff" stroke="#fff" stroke-miterlimit="10" stroke-width="0.2"/>
    <path id="Caminho_3400" data-name="Caminho 3400" d="M57.3,24.14V17h.916v7.14Z" transform="translate(-12.882 -15.165)" fill="#fff" stroke="#fff" stroke-miterlimit="10" stroke-width="0.2"/>
    <path id="Caminho_3401" data-name="Caminho 3401" d="M61.532,24.325a2.664,2.664,0,0,1-1.521-.508,2.354,2.354,0,0,1-.972-1.427l.838-.338a1.912,1.912,0,0,0,.613.991,1.55,1.55,0,0,0,1.042.4,1.667,1.667,0,0,0,1.022-.313,1.007,1.007,0,0,0,.424-.853,1.094,1.094,0,0,0-.424-.922,4.376,4.376,0,0,0-1.341-.6,3.58,3.58,0,0,1-1.436-.774,1.616,1.616,0,0,1-.489-1.211,1.77,1.77,0,0,1,.609-1.335,2.226,2.226,0,0,1,1.585-.569,2.292,2.292,0,0,1,1.476.453,2.106,2.106,0,0,1,.738.992l-.837.349a1.246,1.246,0,0,0-.444-.628,1.56,1.56,0,0,0-1.815.006.9.9,0,0,0-.375.732.834.834,0,0,0,.344.674,3.337,3.337,0,0,0,1.013.494,8.452,8.452,0,0,1,.883.33,4.028,4.028,0,0,1,.716.424,1.663,1.663,0,0,1,.549.658,2.117,2.117,0,0,1,.186.912,1.97,1.97,0,0,1-.214.928,1.754,1.754,0,0,1-.569.649,2.868,2.868,0,0,1-1.6.488Z" transform="translate(-12.55 -15.19)" fill="#fff" stroke="#fff" stroke-miterlimit="10" stroke-width="0.2"/>
    <path id="Caminho_3402" data-name="Caminho 3402" d="M65.16,24.14h-.918V17h2.434a2.253,2.253,0,0,1,1.57.6,2.074,2.074,0,0,1,0,3.042,2.253,2.253,0,0,1-1.57.6H65.16Zm0-3.77H66.7a1.182,1.182,0,0,0,.927-.388,1.229,1.229,0,0,0,0-1.715,1.18,1.18,0,0,0-.927-.39H65.16Z" transform="translate(-11.562 -15.165)" fill="#fff" stroke="#fff" stroke-miterlimit="10" stroke-width="0.2"/>
    <path id="Caminho_3403" data-name="Caminho 3403" d="M75.047,23.243a3.708,3.708,0,0,1-5.235,0,3.858,3.858,0,0,1,0-5.3,3.7,3.7,0,0,1,5.23,0,3.846,3.846,0,0,1,0,5.291Zm-4.558-.6a2.747,2.747,0,0,0,3.879,0,3.042,3.042,0,0,0,0-4.1,2.747,2.747,0,0,0-3.879,0,3.045,3.045,0,0,0,0,4.1Z" transform="translate(-10.704 -15.19)" fill="#fff" stroke="#fff" stroke-miterlimit="10" stroke-width="0.2"/>
    <path id="Caminho_3404" data-name="Caminho 3404" d="M76.009,24.14V17h1.116l3.47,5.554h.04l-.04-1.376V17h.919v7.14h-.958l-3.631-5.824h-.039l.039,1.377V24.14Z" transform="translate(-9.326 -15.165)" fill="#fff" stroke="#fff" stroke-miterlimit="10" stroke-width="0.2"/>
    <path id="Caminho_3405" data-name="Caminho 3405" d="M82.009,24.433v-7.14h.916v7.14Zm.857-7.7h-.8l.519-1.277h1Z" transform="translate(-8.186 -15.458)" fill="#fff" stroke="#fff" stroke-miterlimit="10" stroke-width="0.2"/>
    <path id="Caminho_3406" data-name="Caminho 3406" d="M86.038,24.14,83.525,17h1.017L86.5,22.794h.04L88.572,17h1.016L87,24.14Z" transform="translate(-7.898 -15.165)" fill="#fff" stroke="#fff" stroke-miterlimit="10" stroke-width="0.2"/>
    <path id="Caminho_3407" data-name="Caminho 3407" d="M93.661,17.877H90.41v2.265h2.932V21H90.41v2.265h3.251v.877H89.492V17h4.169Z" transform="translate(-6.765 -15.165)" fill="#fff" stroke="#fff" stroke-miterlimit="10" stroke-width="0.2"/>
    <path id="Caminho_3408" data-name="Caminho 3408" d="M94.2,24.14V17h.917v6.263h3.09v.877Z" transform="translate(-5.869 -15.165)" fill="#fff" stroke="#fff" stroke-miterlimit="10" stroke-width="0.2"/>
    <path id="Caminho_3409" data-name="Caminho 3409" d="M100.554,24.14V17h1.116l3.47,5.554h.039l-.039-1.376V17h.919v7.14H105.1l-3.631-5.824h-.039l.039,1.377V24.14Z" transform="translate(-4.663 -15.165)" fill="#fff" stroke="#fff" stroke-miterlimit="10" stroke-width="0.2"/>
    <path id="Caminho_3410" data-name="Caminho 3410" d="M112.463,23.243a3.708,3.708,0,0,1-5.235,0,3.858,3.858,0,0,1,0-5.3,3.7,3.7,0,0,1,5.23,0,3.846,3.846,0,0,1,0,5.291Zm-4.558-.6a2.747,2.747,0,0,0,3.879,0,3.042,3.042,0,0,0,0-4.1,2.747,2.747,0,0,0-3.879,0,3.045,3.045,0,0,0,0,4.1Z" transform="translate(-3.595 -15.19)" fill="#fff" stroke="#fff" stroke-miterlimit="10" stroke-width="0.2"/>
  </g>
</svg>
