<svg xmlns="http://www.w3.org/2000/svg" width="117.793" height="30.504" viewBox="0 0 117.793 30.504">
  <path id="curva-amarela" d="M2372.209,427.053c-9.817,0-21.454,6.53-27.52,14.783h-.152c-5.288,9.259-17.285,15.721-31.253,15.721-13.078,0-24.45-5.678-30.174-14-.246-.392-.492-.767-.758-1.159-.114-.171-.208-.375-.322-.563h-.095c-6.065-8.253-17.7-14.783-27.52-14.783Z" transform="translate(-2254.415 -427.053)" fill="#f8b217"/>
</svg>
