<svg id="Grupo_4330" data-name="Grupo 4330" xmlns="http://www.w3.org/2000/svg" width="19.238" height="17.664" viewBox="0 0 19.238 17.664">
  <path id="Caminho_13" data-name="Caminho 13" d="M470.379,291.646h4.151a.358.358,0,1,0,0-.715h-4.151a.358.358,0,1,0,0,.715Z" transform="translate(-467.147 -284.225)" fill="#ffba00"/>
  <path id="Caminho_14" data-name="Caminho 14" d="M470.379,297.886h8.3a.358.358,0,0,0,0-.715h-8.3a.358.358,0,1,0,0,.715Z" transform="translate(-467.147 -288.549)" fill="#ffba00"/>
  <path id="Caminho_15" data-name="Caminho 15" d="M479.04,303.769a.358.358,0,0,0-.358-.358h-8.3a.358.358,0,1,0,0,.715h8.3A.358.358,0,0,0,479.04,303.769Z" transform="translate(-467.147 -292.872)" fill="#ffba00"/>
  <path id="Caminho_16" data-name="Caminho 16" d="M477.968,269.115l-10.9-.023a1.935,1.935,0,0,0-1.933,1.933v1.6l-2.538,0a1.934,1.934,0,0,0-1.933,1.931v6.753a1.934,1.934,0,0,0,1.933,1.931h1.9V286.4a.358.358,0,0,0,.228.333.343.343,0,0,0,.13.024.359.359,0,0,0,.265-.117l3.087-3.4,5.292-.023a1.935,1.935,0,0,0,1.932-1.87l1.614,1.776a.359.359,0,0,0,.265.117.346.346,0,0,0,.129-.024.359.359,0,0,0,.229-.334V279.73h.3A1.934,1.934,0,0,0,479.9,277.8v-6.753A1.934,1.934,0,0,0,477.968,269.115ZM473.5,272.6l-7.647.017v-1.6a1.218,1.218,0,0,1,1.215-1.217l10.9.023a1.217,1.217,0,0,1,1.215,1.216V277.8a1.218,1.218,0,0,1-1.217,1.217h-.66a.358.358,0,0,0-.358.358v2.587l-1.52-1.672v-5.75A1.935,1.935,0,0,0,473.5,272.6Zm-8.644,9.923h-2.257a1.219,1.219,0,0,1-1.217-1.217v-6.751a1.218,1.218,0,0,1,1.217-1.216l10.9-.023a1.219,1.219,0,0,1,1.217,1.217v6.751A1.218,1.218,0,0,1,473.5,282.5l-5.452.023a.356.356,0,0,0-.263.117l-2.571,2.828v-2.587A.358.358,0,0,0,464.852,282.527Z" transform="translate(-460.662 -269.092)" fill="#ffba00"/>
</svg>
