<svg id="Grupo_3925" data-name="Grupo 3925" xmlns="http://www.w3.org/2000/svg" xmlns:xlink="http://www.w3.org/1999/xlink" width="158.23" height="102.636" viewBox="0 0 158.23 102.636">
  <defs>
    <linearGradient id="linear-gradient" x1="0.633" y1="-0.076" x2="0.706" y2="1" gradientUnits="objectBoundingBox">
      <stop offset="0" stop-color="#efb705"/>
      <stop offset="0.127" stop-color="#eba906"/>
      <stop offset="0.191" stop-color="#edb105"/>
      <stop offset="0.449" stop-color="#e2910b"/>
      <stop offset="0.463" stop-color="#ebab09"/>
      <stop offset="0.603" stop-color="#e49a0b"/>
      <stop offset="1" stop-color="#eaab0a"/>
    </linearGradient>
    <linearGradient id="linear-gradient-2" x1="0.5" x2="0.5" y2="1" gradientUnits="objectBoundingBox">
      <stop offset="0" stop-color="#ffd324"/>
      <stop offset="1" stop-color="#eebe06"/>
    </linearGradient>
  </defs>
  <path id="Caminho_28" data-name="Caminho 28" d="M1354.538,156.589s19.556-2,30.613,7.456a63.236,63.236,0,0,1,19.961,0c5.7.907,25.74,7.76,26.98,34.443-.063-.021,1.249,0,3.893,0s22.552,7.079,22.292,28.188-12.792,31.61-40.025,31.219C1417.824,258.23,1354.538,156.589,1354.538,156.589Z" transform="translate(-1300.049 -155.27)" fill="url(#linear-gradient)"/>
  <path id="Caminho_27" data-name="Caminho 27" d="M664.984,64.011S645.957,42.5,622.867,56.826,601.525,96.17,601.525,96.17s-14.948,5.32-16.13,30.262c-.626,23.1,22.821,27.864,22.821,27.864h93.333s28.278-1.26,29.353-27.864c.784-31.518-23.978-32.031-23.978-32.031s.374-25.227-21.943-32.89C672.727,57.472,664.984,64.011,664.984,64.011Z" transform="translate(-585.382 -51.906)" fill="url(#linear-gradient-2)"/>
</svg>
