<svg id="Grupo_3927" data-name="Grupo 3927" xmlns="http://www.w3.org/2000/svg" xmlns:xlink="http://www.w3.org/1999/xlink" width="74.971" height="50.884" viewBox="0 0 74.971 50.884">
  <defs>
    <linearGradient id="linear-gradient" x1="0.5" y1="-0.028" x2="0.5" y2="1" gradientUnits="objectBoundingBox">
      <stop offset="0" stop-color="#f2c902"/>
      <stop offset="0.178" stop-color="#e59b08"/>
      <stop offset="0.44" stop-color="#e3930b"/>
      <stop offset="0.457" stop-color="#e79f09"/>
      <stop offset="0.751" stop-color="#e4970b"/>
      <stop offset="1" stop-color="#f1b902"/>
    </linearGradient>
    <linearGradient id="linear-gradient-2" x1="0.5" x2="0.5" y2="1" gradientUnits="objectBoundingBox">
      <stop offset="0" stop-color="#ffd321"/>
      <stop offset="1" stop-color="#eebe06"/>
    </linearGradient>
  </defs>
  <path id="Caminho_26" data-name="Caminho 26" d="M574.978,101.461s15.812,2.142,16.879-13.8a15.3,15.3,0,0,0-7.3-14.606s.176-13-9.577-19.551c-6.68-3.786-14.723-2.624-14.723-2.624Z" transform="translate(-516.934 -50.717)" fill="url(#linear-gradient)"/>
  <path id="Caminho_25" data-name="Caminho 25" d="M615.605,57.915s8.721-10.678,19.306-3.567,9.783,19.532,9.783,19.532,6.852,2.641,7.394,15.023c.287,11.469-10.461,13.833-10.461,13.833H598.845s-12.962-.626-13.455-13.833C585.031,73.257,596.381,73,596.381,73s-.171-12.524,10.058-16.328A9.217,9.217,0,0,1,615.605,57.915Z" transform="translate(-585.382 -51.852)" fill="url(#linear-gradient-2)"/>
</svg>
