<svg xmlns="http://www.w3.org/2000/svg" width="8.547" height="29.692" viewBox="0 0 8.547 29.692">
  <g id="Grupo_4280" data-name="Grupo 4280" transform="translate(-129.195 -41.493) rotate(90)">
    <g id="Grupo_4228" data-name="Grupo 4228" transform="translate(-0.651 -169.607)">
      <path id="Caminho_3219" data-name="Caminho 3219" d="M2159.058,345.192c-2.475,0-5.408,1.83-6.937,4.142h-.038a8.754,8.754,0,0,1-7.878,4.4,8.884,8.884,0,0,1-7.606-3.922c-.062-.11-.124-.215-.191-.325-.029-.048-.052-.105-.081-.158h-.024c-1.529-2.312-4.462-4.142-6.937-4.142Z" transform="translate(-2087.222 -313.327)" fill="#02125f"/>
    </g>
  </g>
</svg>
